[gd_scene load_steps=2 format=2]

[ext_resource path="res://Robot.tscn" type="PackedScene" id=1]

[node name="Level 0" type="Node2D"]

[node name="Part 1" type="CollisionShape2D" parent="."]
position = Vector2( 449.682, -307.265 )

[node name="Robot" parent="." instance=ExtResource( 1 )]
position = Vector2( 328.374, -286.168 )

[node name="Camera2D" type="Camera2D" parent="."]
offset = Vector2( 512, -300 )
